<?xml version="1.0" encoding="utf-8"?>
<!-- Generator: Adobe Illustrator 16.0.0, SVG Export Plug-In . SVG Version: 6.00 Build 0)  -->
<!DOCTYPE svg PUBLIC "-//W3C//DTD SVG 1.1//EN" "http://www.w3.org/Graphics/SVG/1.1/DTD/svg11.dtd">
<svg version="1.1" id="Layer_1" xmlns="http://www.w3.org/2000/svg" xmlns:xlink="http://www.w3.org/1999/xlink" x="0px" y="0px"
	 width="89.546px" height="89.546px" viewBox="0 0 89.546 89.546" enable-background="new 0 0 89.546 89.546" xml:space="preserve">
<path fill="#58595B" d="M76.008,13.742C76.003,13.451,76,13.201,76,13c0-0.552-0.448-1-1-1h-5.336c0.028-0.97,0.048-1.962,0.048-3
	c0-0.552-0.447-1-1-1H23.321c-0.552,0-1,0.448-1,1c0,1.038,0.019,2.029,0.047,3H17c-0.552,0-1,0.448-1,1
	c0,0.291-0.005,0.632-0.01,1.015C15.933,18.272,15.813,27.13,20.52,31.9c1.911,1.938,4.413,2.963,7.431,3.077
	c2.683,3.993,5.898,5.935,8.651,7.589c3.496,2.102,5.805,3.49,5.805,8.024C42.25,59.342,38.98,61,33,61c-0.552,0-1,0.448-1,1v5
	c0,0.553,0.448,1,1,1h26c0.552,0,1-0.447,1-1v-5c0-0.552-0.448-1-1-1c-6.516,0-9.55-3.301-9.55-10.391
	c0-4.568,2.338-5.975,5.877-8.103c2.753-1.655,5.965-3.595,8.655-7.529c2.933-0.116,5.388-1.141,7.293-3.073
	C76.194,26.915,76.06,17.345,76.008,13.742z M21.943,30.496c-4.12-4.176-4.007-12.469-3.954-16.454
	c0.001-0.014,0.001-0.027,0.001-0.042h4.455c0.444,8.854,2.075,14.755,4.238,18.862C24.783,32.567,23.219,31.789,21.943,30.496z
	 M54.313,21.391l-4.729,3.782l1.89,5.669c0.07,0.21-0.006,0.441-0.188,0.569C51.199,31.471,51.1,31.5,51,31.5
	c-0.11,0-0.222-0.037-0.313-0.109L46,27.641l-4.688,3.75c-0.173,0.138-0.416,0.146-0.599,0.02c-0.182-0.127-0.258-0.358-0.188-0.569
	l1.89-5.669l-4.728-3.782c-0.165-0.133-0.229-0.355-0.159-0.556S37.788,20.5,38,20.5h5.672l1.797-4.133
	c0.079-0.18,0.255-0.298,0.452-0.301c0.213-0.006,0.376,0.11,0.459,0.289l1.938,4.146H54c0.212,0,0.401,0.134,0.472,0.334
	S54.478,21.258,54.313,21.391z M69.852,30.5c-1.255,1.274-2.765,2.049-4.577,2.352c2.198-4.102,3.858-9.996,4.311-18.852h4.426
	C74.06,17.535,74.089,26.203,69.852,30.5z"/>
</svg>
