<?xml version="1.0" encoding="utf-8"?>
<!-- Generator: Adobe Illustrator 16.0.0, SVG Export Plug-In . SVG Version: 6.00 Build 0)  -->
<!DOCTYPE svg PUBLIC "-//W3C//DTD SVG 1.1//EN" "http://www.w3.org/Graphics/SVG/1.1/DTD/svg11.dtd">
<svg version="1.1" id="Layer_1" xmlns="http://www.w3.org/2000/svg" xmlns:xlink="http://www.w3.org/1999/xlink" x="0px" y="0px"
	 width="89.546px" height="89.546px" viewBox="0 0 89.546 89.546" enable-background="new 0 0 89.546 89.546" xml:space="preserve">
<g>
	<path fill="#58595B" d="M70,7.174H22c-0.552,0-1,0.448-1,1v58c0,0.553,0.448,1,1,1h48c0.552,0,1-0.447,1-1v-58
		C71,7.622,70.552,7.174,70,7.174z M69,55v9v1.174H23V64v-9V9.174h46V55z"/>
	<path fill="#58595B" d="M41,44.521c-0.896-0.721-2.581-2.599-2.767-6.61c-1.039-0.596-1.634-2.111-1.634-3.587
		c0-0.806,0.186-1.52,0.535-2.065c0.21-0.327,0.476-0.587,0.783-0.776c-0.002-0.003-0.003-0.007-0.004-0.01
		c-0.705-1.661-1.769-4.171-0.751-5.708c0.349-0.528,1.114-1.16,2.657-1.041c1.299-2.696,5.121-3.679,8.225-3.679
		c3.413,0,7.697,1.189,8.535,4.54c0.606,2.43-0.271,4.63-0.838,5.923c0.281,0.185,0.525,0.435,0.721,0.744
		c0.336,0.536,0.515,1.237,0.515,2.028c0,1.494-0.599,3.027-1.644,3.629c-0.154,3.994-1.556,5.845-2.333,6.57v3.828l14,5.25V12
		c0-0.552-0.448-1-1-1H26c-0.552,0-1,0.448-1,1v41.612l16-5.333V44.521z"/>
</g>
</svg>
