<?xml version="1.0" encoding="utf-8"?>
<!-- Generator: Adobe Illustrator 16.0.0, SVG Export Plug-In . SVG Version: 6.00 Build 0)  -->
<!DOCTYPE svg PUBLIC "-//W3C//DTD SVG 1.1//EN" "http://www.w3.org/Graphics/SVG/1.1/DTD/svg11.dtd">
<svg version="1.1" id="Layer_1" xmlns="http://www.w3.org/2000/svg" xmlns:xlink="http://www.w3.org/1999/xlink" x="0px" y="0px"
	 width="89.546px" height="89.546px" viewBox="0 0 89.546 89.546" enable-background="new 0 0 89.546 89.546" xml:space="preserve">
<g>
	<path fill="#58595B" d="M69.823,30.994C62.845,30.928,59,27.033,59,20c0-0.552,0.448-1,1-1s1,0.448,1,1
		c0,0.355,0.013,0.699,0.033,1.034c0.317,4.952,2.981,7.615,7.933,7.933c0.179,0.011,0.367,0.012,0.552,0.018
		C67.335,17.873,57.951,10,46,10s-21.335,7.873-23.518,18.984c0.185-0.006,0.373-0.007,0.551-0.018
		c4.953-0.318,7.615-2.981,7.933-7.933C30.988,20.699,31,20.355,31,20c0-0.552,0.448-1,1-1s1,0.448,1,1
		c0,7.033-3.845,10.928-10.823,10.994C22.064,31.976,22,32.977,22,34v6c0,7.488,5.195,13.428,12,13.961V65h1h1h6V53
		c0-0.552,0.448-1,1-1s1,0.448,1,1v12h4V53c0-0.552,0.448-1,1-1s1,0.448,1,1v12h6h1h1V53.961C64.806,53.428,70,47.488,70,40v-6
		C70,32.977,69.936,31.976,69.823,30.994z M35,48c-4.418,0-8-3.582-8-8c0-4.418,3.582-8,8-8s8,3.582,8,8C43,44.418,39.418,48,35,48z
		 M47.325,48.826c-0.008,0-0.014,0-0.021,0h-2.522c-0.347,0-0.668-0.179-0.851-0.473c-0.182-0.296-0.199-0.664-0.044-0.975
		l1.261-2.521c0.339-0.678,1.45-0.678,1.79,0l1.18,2.361c0.13,0.168,0.207,0.38,0.207,0.607
		C48.325,48.379,47.877,48.826,47.325,48.826z M57,48c-4.419,0-8-3.582-8-8c0-4.418,3.581-8,8-8s8,3.582,8,8
		C65,44.418,61.419,48,57,48z"/>
	<path fill="#58595B" d="M57,34c-3.309,0-6,2.691-6,6s2.691,6,6,6s6-2.691,6-6S60.309,34,57,34z"/>
	<path fill="#58595B" d="M35,34c-3.309,0-6,2.691-6,6s2.691,6,6,6s6-2.691,6-6S38.309,34,35,34z"/>
</g>
</svg>
