<?xml version="1.0" encoding="utf-8"?>
<!-- Generator: Adobe Illustrator 16.0.0, SVG Export Plug-In . SVG Version: 6.00 Build 0)  -->
<!DOCTYPE svg PUBLIC "-//W3C//DTD SVG 1.1//EN" "http://www.w3.org/Graphics/SVG/1.1/DTD/svg11.dtd">
<svg version="1.1" id="Layer_1" xmlns="http://www.w3.org/2000/svg" xmlns:xlink="http://www.w3.org/1999/xlink" x="0px" y="0px"
	 width="89.546px" height="89.546px" viewBox="0 0 89.546 89.546" enable-background="new 0 0 89.546 89.546" xml:space="preserve">
<g>
	<path fill="#58595B" d="M72.171,18.344l-6.514-6.515C64.15,10.323,62.142,9.493,60,9.493s-4.151,0.83-5.657,2.336L42.586,23.586
		c-2.599,2.599-2.188,6.641,1,9.829c0.78,0.781,2.048,0.781,2.828,0c0.781-0.781,0.781-2.048,0-2.829
		c-0.432-0.432-2.509-2.662-1-4.171l11.757-11.757c0.751-0.751,1.756-1.165,2.829-1.165s2.077,0.414,2.828,1.164l6.515,6.516
		c0.751,0.751,1.164,1.755,1.164,2.828c0,1.074-0.413,2.078-1.164,2.829L57.585,38.586c-0.436,0.437-0.949,0.606-1.574,0.518
		c-0.811-0.114-1.732-0.653-2.596-1.518c-0.782-0.781-2.048-0.781-2.829,0s-0.781,2.047-0.001,2.828
		c1.495,1.495,3.178,2.412,4.865,2.65c0.295,0.042,0.586,0.063,0.874,0.063c1.542,0,2.97-0.592,4.09-1.713l11.757-11.756
		c1.507-1.507,2.336-3.516,2.336-5.658C74.507,21.859,73.678,19.85,72.171,18.344z"/>
	<path fill="#58595B" d="M45.586,42.586c-0.781,0.781-0.781,2.048,0,2.828c0.432,0.432,2.509,2.662,0.994,4.178l-11.644,11.74
		c-0.748,0.753-1.748,1.169-2.816,1.17c-1.072-0.005-2.069-0.408-2.818-1.158l-6.646-6.645c-0.749-0.75-1.161-1.751-1.159-2.82
		c0.002-1.068,0.418-2.068,1.17-2.815l11.746-11.649c1.509-1.509,3.74,0.568,4.172,1c0.781,0.781,2.047,0.781,2.829,0
		c0.781-0.782,0.781-2.048,0-2.829c-3.239-3.238-7.189-3.64-9.822-1.006L19.851,46.225c-1.514,1.501-2.35,3.507-2.354,5.647
		c-0.004,2.14,0.824,4.147,2.331,5.654l6.646,6.646c1.503,1.504,3.505,2.33,5.638,2.33c0.005,0,0.011,0,0.016,0
		c2.14-0.004,4.146-0.84,5.648-2.354l11.64-11.734c2.598-2.599,2.187-6.641-1.001-9.828C47.634,41.805,46.366,41.805,45.586,42.586z
		"/>
	<path fill="#58595B" d="M34.586,49.414C34.976,49.805,35.488,50,36,50s1.024-0.195,1.414-0.586l20-20
		c0.781-0.781,0.781-2.048,0-2.829c-0.78-0.781-2.048-0.781-2.828,0l-20,20C33.805,47.367,33.805,48.634,34.586,49.414z"/>
</g>
</svg>
