<?xml version="1.0" encoding="utf-8"?>
<!-- Generator: Adobe Illustrator 16.0.0, SVG Export Plug-In . SVG Version: 6.00 Build 0)  -->
<!DOCTYPE svg PUBLIC "-//W3C//DTD SVG 1.1//EN" "http://www.w3.org/Graphics/SVG/1.1/DTD/svg11.dtd">
<svg version="1.1" id="Layer_1" xmlns="http://www.w3.org/2000/svg" xmlns:xlink="http://www.w3.org/1999/xlink" x="0px" y="0px"
	 width="89.546px" height="89.546px" viewBox="0 0 89.546 89.546" enable-background="new 0 0 89.546 89.546" xml:space="preserve">
<path fill="#58595B" d="M46,8c-11.579,0-21,9.421-21,21c0,11.248,19.372,37.484,20.197,38.596C45.386,67.85,45.684,68,46,68
	s0.614-0.15,0.803-0.404C47.628,66.484,67,40.248,67,29C67,17.421,57.579,8,46,8z M46,38c-4.963,0-9-4.037-9-9s4.037-9,9-9
	s9,4.037,9,9S50.963,38,46,38z"/>
</svg>
