<?xml version="1.0" encoding="utf-8"?>
<!-- Generator: Adobe Illustrator 16.0.0, SVG Export Plug-In . SVG Version: 6.00 Build 0)  -->
<!DOCTYPE svg PUBLIC "-//W3C//DTD SVG 1.1//EN" "http://www.w3.org/Graphics/SVG/1.1/DTD/svg11.dtd">
<svg version="1.1" id="Layer_1" xmlns="http://www.w3.org/2000/svg" xmlns:xlink="http://www.w3.org/1999/xlink" x="0px" y="0px"
	 width="89.546px" height="89.546px" viewBox="0 0 89.546 89.546" enable-background="new 0 0 89.546 89.546" xml:space="preserve">
<g>
	<path fill="#58595B" d="M16,8v44h7.337c1.288-2.975,6.379-13.739,12.576-13.739c5.173,0,9.432,4.497,11.245,6.757l6.841-11.728
		c0.934-1.601,2.664-2.595,4.518-2.595c1.994,0,3.785,1.108,4.677,2.892L72.611,52H76V8H16z M44.969,27.903
		c-1.321,1.357-3.085,2.104-4.969,2.104h0c-0.117,0-0.236-0.003-0.354-0.009L32.13,30c-0.044,0.007-0.17,0.013-0.294,0.013
		c-2.475,0-4.488-2.073-4.488-4.621c0-2.638,2.146-4.783,4.783-4.783c0.208,0,0.417,0.015,0.625,0.043
		c0.945-3.003,3.712-5.086,6.94-5.086c4.028,0,7.305,3.276,7.305,7.304C47,24.771,46.279,26.559,44.969,27.903z"/>
	<rect x="16" y="54" fill="#58595B" width="60" height="14"/>
</g>
</svg>
